/Users/300028074/crandemo/src/main/java/com/cran/demo/repository/AuthorRepository.java
/Users/300028074/crandemo/src/main/java/com/cran/demo/CranDemoApplication.java
/Users/300028074/crandemo/src/main/java/com/cran/demo/controller/PackageDetailsController.java
/Users/300028074/crandemo/src/main/java/com/cran/demo/service/impl/AuthorServiceImpl.java
/Users/300028074/crandemo/src/main/java/com/cran/demo/service/PackageDetailsService.java
/Users/300028074/crandemo/src/main/java/com/cran/demo/converter/PackageDetailsConverter.java
/Users/300028074/crandemo/src/main/java/com/cran/demo/repository/PackageDetailsRepository.java
/Users/300028074/crandemo/src/main/java/com/cran/demo/service/impl/PackageDetailsDetailsServiceImpl.java
/Users/300028074/crandemo/src/main/java/com/cran/demo/controller/AuthorController.java
/Users/300028074/crandemo/src/main/java/com/cran/demo/service/AuthorService.java
/Users/300028074/crandemo/src/main/java/com/cran/demo/utils/Constants.java
/Users/300028074/crandemo/src/main/java/com/cran/demo/entity/Author.java
/Users/300028074/crandemo/src/main/java/com/cran/demo/converter/AuthorConverter.java
/Users/300028074/crandemo/src/main/java/com/cran/demo/entity/PackageDetails.java
/Users/300028074/crandemo/src/main/java/com/cran/demo/dto/AuthorDto.java
/Users/300028074/crandemo/src/main/java/com/cran/demo/controller/HomeController.java
/Users/300028074/crandemo/src/main/java/com/cran/demo/dto/PackageDetailsDto.java
